FCC ID,RS422 Channel,Bus Name,Transmit Interval (ms),Parameter Name,Sign Type,Digital State,Starting Bit,Bit Length,LSB Weight,Digital Range,Offset,Functional Range Minimum,Functional Range Maximum,Units,Functional Requirement,FCC Software Signal Name,FCC Data Type,Notes
1,1,Receiver 1,6.3,Start Byte ,Unsigned,,1,8,STD,256,0,15,15,N/A,,rc_start_byte,uint32,Fixed Value
1,1,Receiver 1,6.3,Lateral Angle (Input 1),Unsigned,,9,11,0.0268,N/A,-27.429,-18,18,deg,,rc_lat_posn,real,corresponds to ssu roll angle
1,1,Receiver 1,6.3,Vertical Angle (Input 2),Unsigned,,20,11,0.0298,N/A,-30.476,-20,20,deg,,rc_vert_posn,real,corresponds to ssu pitch angle
1,1,Receiver 1,6.3,Forward Speed (Input 3),Unsigned,,31,11,0.0372,N/A,-13.095,0,50,deg,,rc_fwd_spd_posn,real,corresonds to height rate lever angle
1,1,Receiver 1,6.3,Yaw Rate (Input 4),Unsigned,,42,11,0.0774,N/A,-79.238,-52,52,mm,,rc_yaw_rate_posn,real,corresponds to rudder pedal displacement
1,1,Receiver 1,6.3,FCS States Switch (Input 5),Unsigned,,53,11,0.1488,N/A,-152.38,-100,100,,,rc_fcs_state_real,real,"This is a discrete signal with 3 possible values -100= unauthorised for flight, 0= Ground Ops mode, 100= authorised for flight.  This is used to compute rc_unauthorise_disc and rc_authorise_disc."
1,1,Receiver 1,6.3,Mode Switch (Input 6),Unsigned,,64,11,0.1488,N/A,-152.38,-100,100,,Refer FCS STS Section 'FCE-Remote Controller',rc_mode_real,real,"This is a discrete signal with 2 possible values -100=Remote Pilot Mode, 100=Controlled Descent Mode.  This is used to compute rc_ctrl_descent."
1,1,Receiver 1,6.3,Shutdown Switch (Input 7),Unsigned,,75,11,0.1488,N/A,-152.38,-100,100,,VA1X-27-SYS-00498,rc_shtdn_real,real,"This is a discrete signal with 2 possible values -100=Not Shutdown, 100=Shutdown.  This is used to compute rc_shtdn."
1,1,Receiver 1,6.3,Input 8(Not Used),Unsigned,,86,11,,,,,,,,,,
1,1,Receiver 1,6.3,Rudder Pedal Left Brake (Input  9),Unsigned,,97,11,0.0112,N/A,-3.9286,0,15,deg,,rc_rud_left_brake_lvdt,real,corresponds to rudder pedal left brake angle (tbd)
1,1,Receiver 1,6.3,Rudder Pedal Right Brake (Input  10),Unsigned,,108,11,0.0112,N/A,-3.9286,0,15,deg,,rc_rud_right_brake_lvdt,real,corresponds to rudder pedal right brake angle (tbd)
1,1,Receiver 1,6.3,Flight Test Enable,Unsigned,,119,11,0.1488,N/A,-152.38,-100,100,,"VA1X-27-SYS-00571, VA1X-27-SYS-00572",rc_flight_test_enable,real,"This is a discrete signal with 2 possible values -100=flight test disable, 0=flight test disable, 100=flight test enable."
1,1,Receiver 1,6.3,Flight Test Discrete 2,Unsigned,,130,11,0.1488,N/A,-152.38,-100,100,,"VA1X-27-SYS-00201, VA1X-27-SYS-00572",rc_flight_test_discrete_2,real,"This is a discrete signal with 2 possible values -100=flight_test_discrete_2 inactive, 0=flight_test_discrete_2 inactive ,100=flight_test_discrete_2 active"
1,1,Receiver 1,6.3,Input 13(Not Used),Unsigned,,141,11,,,,,,,,,,
1,1,Receiver 1,6.3,Input 14(Not Used),Unsigned,,152,11,,,,,,,,,,
1,1,Receiver 1,6.3,Input 15(Not Used),Unsigned,,163,11,,,,,,,,,,
1,1,Receiver 1,6.3,Input 16(Not Used),Unsigned,,174,11,,,,,,,,,,
1,1,Receiver 1,6.3,DCH1 (Not Used),Unsigned,,185,1,,,,,,,,,,
1,1,Receiver 1,6.3,DCH2 (Not Used),Unsigned,,186,1,,,,,,,,,,
1,1,Receiver 1,6.3,rc_lost,Unsigned,,187,1,,,,,,,,,,
1,1,Receiver 1,6.3,rc_failsafe,Unsigned,,188,1,,,,,,,,,,
1,1,Receiver 1,6.3,Unused (Status Byte upper bits),Unsigned,,189,4,,,,,,,,,,
1,1,Receiver 1,6.3,Stop Byte ,Unsigned,,193,8,STD,256,0,8,8,N/A,,rc_stop_byte,uint32,Fixed Value
2,1,Receiver 2,6.3,Start Byte ,Unsigned,,1,8,STD,256,0,15,15,N/A,,rc_start_byte,uint32,Fixed Value
2,1,Receiver 2,6.3,Lateral Angle (Input 1),Unsigned,,9,11,0.0268,N/A,-27.429,-18,18,deg,,rc_lat_posn,real,corresponds to ssu roll angle
2,1,Receiver 2,6.3,Vertical Angle (Input 2),Unsigned,,20,11,0.0298,N/A,-30.476,-20,20,deg,,rc_vert_posn,real,corresponds to ssu pitch angle
2,1,Receiver 2,6.3,Forward Speed (Input 3),Unsigned,,31,11,0.0372,N/A,-13.095,0,50,deg,,rc_fwd_spd_posn,real,corresonds to height rate lever angle
2,1,Receiver 2,6.3,Yaw Rate (Input 4),Unsigned,,42,11,0.0774,N/A,-79.238,-52,52,mm,,rc_yaw_rate_posn,real,corresponds to rudder pedal displacement
2,1,Receiver 2,6.3,FCS States Switch (Input 5),Unsigned,,53,11,0.1488,N/A,-152.38,-100,100,,,rc_fcs_state_real,real,"This is a discrete signal with 3 possible values -100= unauthorised for flight, 0= Ground Ops mode, 100= authorised for flight.  This is used to compute rc_unauthorise_disc and rc_authorise_disc."
2,1,Receiver 2,6.3,Mode Switch (Input 6),Unsigned,,64,11,0.1488,N/A,-152.38,-100,100,,Refer FCS STS Section 'FCE-Remote Controller',rc_mode_real,real,"This is a discrete signal with 2 possible values -100=Remote Pilot Mode, 100=Controlled Descent Mode.  This is used to compute rc_ctrl_descent."
2,1,Receiver 2,6.3,Shutdown Switch (Input 7),Unsigned,,75,11,0.1488,N/A,-152.38,-100,100,,VA1X-27-SYS-00498,rc_shtdn_real,real,"This is a discrete signal with 2 possible values -100=Not Shutdown, 100=Shutdown.  This is used to compute rc_shtdn."
2,1,Receiver 2,6.3,Input 8(Not Used),Unsigned,,86,11,,,,,,,,,,
2,1,Receiver 2,6.3,Rudder Pedal Left Brake (Input  9),Unsigned,,97,11,0.0112,N/A,-3.9286,0,15,deg,,rc_rud_left_brake_lvdt,real,corresponds to rudder pedal left brake angle (tbd)
2,1,Receiver 2,6.3,Rudder Pedal Right Brake (Input  10),Unsigned,,108,11,0.0112,N/A,-3.9286,0,15,deg,,rc_rud_right_brake_lvdt,real,corresponds to rudder pedal right brake angle (tbd)
2,1,Receiver 2,6.3,Flight Test Enable,Unsigned,,119,11,0.1488,N/A,-152.38,-100,100,,"VA1X-27-SYS-00571, VA1X-27-SYS-00572",rc_flight_test_enable,real,"This is a discrete signal with 2 possible values -100=flight test disable, 0=flight test disable, 100=flight test enable."
2,1,Receiver 2,6.3,Flight Test Discrete 2,Unsigned,,130,11,0.1488,N/A,-152.38,-100,100,,"VA1X-27-SYS-00201, VA1X-27-SYS-00572",rc_flight_test_discrete_2,real,"This is a discrete signal with 2 possible values -100=flight_test_discrete_2 inactive, 0=flight_test_discrete_2 inactive ,100=flight_test_discrete_2 active"
2,1,Receiver 2,6.3,Input 13(Not Used),Unsigned,,141,11,,,,,,,,,,
2,1,Receiver 2,6.3,Input 14(Not Used),Unsigned,,152,11,,,,,,,,,,
2,1,Receiver 2,6.3,Input 15(Not Used),Unsigned,,163,11,,,,,,,,,,
2,1,Receiver 2,6.3,Input 16(Not Used),Unsigned,,174,11,,,,,,,,,,
2,1,Receiver 2,6.3,DCH1 (Not Used),Unsigned,,185,1,,,,,,,,,,
2,1,Receiver 2,6.3,DCH2 (Not Used),Unsigned,,186,1,,,,,,,,,,
2,1,Receiver 2,6.3,rc_lost,Unsigned,,187,1,,,,,,,,,,
2,1,Receiver 2,6.3,rc_failsafe,Unsigned,,188,1,,,,,,,,,,
2,1,Receiver 2,6.3,Unused (Status Byte upper bits),Unsigned,,189,4,,,,,,,,,,
2,1,Receiver 2,6.3,Stop Byte ,Unsigned,,193,8,STD,256,0,8,8,N/A,,rc_stop_byte,uint32,Fixed Value
3,1,Receiver 3,6.3,Start Byte ,Unsigned,,1,8,STD,256,0,15,15,N/A,,rc_start_byte,uint32,Fixed Value
3,1,Receiver 3,6.3,Lateral Angle (Input 1),Unsigned,,9,11,0.0268,N/A,-27.429,-18,18,deg,,rc_lat_posn,real,corresponds to ssu roll angle
3,1,Receiver 3,6.3,Vertical Angle (Input 2),Unsigned,,20,11,0.0298,N/A,-30.476,-20,20,deg,,rc_vert_posn,real,corresponds to ssu pitch angle
3,1,Receiver 3,6.3,Forward Speed (Input 3),Unsigned,,31,11,0.0372,N/A,-13.095,0,50,deg,,rc_fwd_spd_posn,real,corresonds to height rate lever angle
3,1,Receiver 3,6.3,Yaw Rate (Input 4),Unsigned,,42,11,0.0774,N/A,-79.238,-52,52,mm,,rc_yaw_rate_posn,real,corresponds to rudder pedal displacement
3,1,Receiver 3,6.3,FCS States Switch (Input 5),Unsigned,,53,11,0.1488,N/A,-152.38,-100,100,,,rc_fcs_state_real,real,"This is a discrete signal with 3 possible values -100= unauthorised for flight, 0= Ground Ops mode, 100= authorised for flight.  This is used to compute rc_unauthorise_disc and rc_authorise_disc."
3,1,Receiver 3,6.3,Mode Switch (Input 6),Unsigned,,64,11,0.1488,N/A,-152.38,-100,100,,Refer FCS STS Section 'FCE-Remote Controller',rc_mode_real,real,"This is a discrete signal with 2 possible values -100=Remote Pilot Mode, 100=Controlled Descent Mode.  This is used to compute rc_ctrl_descent."
3,1,Receiver 3,6.3,Shutdown Switch (Input 7),Unsigned,,75,11,0.1488,N/A,-152.38,-100,100,,VA1X-27-SYS-00498,rc_shtdn_real,real,"This is a discrete signal with 2 possible values -100=Not Shutdown, 100=Shutdown.  This is used to compute rc_shtdn."
3,1,Receiver 3,6.3,Input 8(Not Used),Unsigned,,86,11,,,,,,,,,,
3,1,Receiver 3,6.3,Rudder Pedal Left Brake (Input  9),Unsigned,,97,11,0.0112,N/A,-3.9286,0,15,deg,,rc_rud_left_brake_lvdt,real,corresponds to rudder pedal left brake angle (tbd)
3,1,Receiver 3,6.3,Rudder Pedal Right Brake (Input  10),Unsigned,,108,11,0.0112,N/A,-3.9286,0,15,deg,,rc_rud_right_brake_lvdt,real,corresponds to rudder pedal right brake angle (tbd)
3,1,Receiver 3,6.3,Flight Test Enable,Unsigned,,119,11,0.1488,N/A,-152.38,-100,100,,"VA1X-27-SYS-00571, VA1X-27-SYS-00572",rc_flight_test_enable,real,"This is a discrete signal with 2 possible values -100=flight test disable, 0=flight test disable, 100=flight test enable."
3,1,Receiver 3,6.3,Flight Test Discrete 2,Unsigned,,130,11,0.1488,N/A,-152.38,-100,100,,"VA1X-27-SYS-00201, VA1X-27-SYS-00572",rc_flight_test_discrete_2,real,"This is a discrete signal with 2 possible values -100=flight_test_discrete_2 inactive, 0=flight_test_discrete_2 inactive ,100=flight_test_discrete_2 active"
3,1,Receiver 3,6.3,Input 13(Not Used),Unsigned,,141,11,,,,,,,,,,
3,1,Receiver 3,6.3,Input 14(Not Used),Unsigned,,152,11,,,,,,,,,,
3,1,Receiver 3,6.3,Input 15(Not Used),Unsigned,,163,11,,,,,,,,,,
3,1,Receiver 3,6.3,Input 16(Not Used),Unsigned,,174,11,,,,,,,,,,
3,1,Receiver 3,6.3,DCH1 (Not Used),Unsigned,,185,1,,,,,,,,,,
3,1,Receiver 3,6.3,DCH2 (Not Used),Unsigned,,186,1,,,,,,,,,,
3,1,Receiver 3,6.3,rc_lost,Unsigned,,187,1,,,,,,,,,,
3,1,Receiver 3,6.3,rc_failsafe,Unsigned,,188,1,,,,,,,,,,
3,1,Receiver 3,6.3,Unused (Status Byte upper bits),Unsigned,,189,4,,,,,,,,,,
3,1,Receiver 3,6.3,Stop Byte ,Unsigned,,193,8,STD,256,0,8,8,N/A,,rc_stop_byte,uint32,Fixed Value
